<?xml version="1.0" encoding="UTF-8"?>
<svg width="37px" height="37px" viewBox="0 0 37 37" version="1.1" xmlns="http://www.w3.org/2000/svg" xmlns:xlink="http://www.w3.org/1999/xlink">
    <!-- Generator: Sketch 55.2 (78181) - https://sketchapp.com -->
    <title>like_o</title>
    <desc>Created with Sketch.</desc>
    <g id="Page-1" stroke="none" stroke-width="1" fill="none" fill-rule="evenodd">
        <g id="like_o" fill-rule="nonzero">
            <circle id="Oval" fill="#A0023F" cx="18.04" cy="18.04" r="17.36"></circle>
            <path d="M18.04,36.08 C8.09,36.08 0,27.99 0,18.04 C0,8.1 8.09,0 18.04,0 C27.99,0 36.08,8.09 36.08,18.04 C36.07,27.99 27.98,36.08 18.04,36.08 Z M18.04,1.37 C8.84,1.37 1.36,8.85 1.36,18.05 C1.36,27.25 8.84,34.73 18.04,34.73 C27.24,34.73 34.72,27.25 34.72,18.05 C34.72,8.85 27.23,1.37 18.04,1.37 Z" id="Shape" fill="#FFFFFF"></path>
            <g id="Group" transform="translate(5.010000, 7.210000)" fill="#F9CFD7">
                <path d="M13.14,4.48 C13.14,4.48 10.96,0.59 6.88,1.02 C2.8,1.45 1.76,3.25 1.14,5.05 C0.52,6.85 0,10.41 3.32,13.92 C6.64,17.43 12.52,21.89 12.99,23.59" id="Path"></path>
                <path d="M12.78,4.53 C12.78,4.53 14.96,0.64 19.04,1.07 C23.12,1.49 24.16,3.3 24.78,5.1 C25.4,6.9 25.92,10.46 22.6,13.96 C19.28,17.47 13.4,21.93 12.93,23.63" id="Path"></path>
            </g>
            <path d="M12.32,10.08 C12.32,10.08 8.77,10.17 8.05,12.26 C7.32,14.36 9.23,13.63 12.32,10.08 Z" id="Path" fill="#FFFFFF"></path>
        </g>
    </g>
</svg>